{
  "users" :[
    {
      "firstName" : "John",
      "lastName" : "Doe",
      "email" : "john@email.com",
      "username" : "john",
      "password" : "123456"
    },
    {
      "firstName" : "Jane",
      "lastName" : "Doe",
      "email" : "jane@email.com",
      "username" : "jane",
      "password" : "654321"
    }
  ]
}